module gitlab.com/home_life_management/rpzsensorrecorder

go 1.20

require (
	github.com/pkg/errors v0.9.1
	github.com/spf13/viper v1.10.1
	gitlab.com/home_life_management/common_lib v0.0.0-20220122215211-6ad86b04bd72
	go.uber.org/zap v1.20.0
)

require (
	github.com/fsnotify/fsnotify v1.5.1 // indirect
	github.com/gocarina/gocsv v0.0.0-20211203214250-4735fba0c1d9 // indirect
	github.com/hashicorp/hcl v1.0.0 // indirect
	github.com/jackc/chunkreader/v2 v2.0.1 // indirect
	github.com/jackc/pgconn v1.10.1 // indirect
	github.com/jackc/pgio v1.0.0 // indirect
	github.com/jackc/pgpassfile v1.0.0 // indirect
	github.com/jackc/pgproto3/v2 v2.2.0 // indirect
	github.com/jackc/pgservicefile v0.0.0-20200714003250-2b9c44734f2b // indirect
	github.com/jackc/pgtype v1.9.1 // indirect
	github.com/jackc/pgx/v4 v4.14.1 // indirect
	github.com/jackc/puddle v1.2.1 // indirect
	github.com/magiconair/properties v1.8.5 // indirect
	github.com/mitchellh/mapstructure v1.4.3 // indirect
	github.com/pelletier/go-toml v1.9.4 // indirect
	github.com/spf13/afero v1.8.0 // indirect
	github.com/spf13/cast v1.4.1 // indirect
	github.com/spf13/jwalterweatherman v1.1.0 // indirect
	github.com/spf13/pflag v1.0.5 // indirect
	github.com/subosito/gotenv v1.2.0 // indirect
	go.uber.org/atomic v1.9.0 // indirect
	go.uber.org/multierr v1.7.0 // indirect
	golang.org/x/crypto v0.0.0-20220112180741-5e0467b6c7ce // indirect
	golang.org/x/sys v0.0.0-20220114195835-da31bd327af9 // indirect
	golang.org/x/text v0.3.7 // indirect
	gopkg.in/ini.v1 v1.66.3 // indirect
	gopkg.in/yaml.v2 v2.4.0 // indirect
)
